Partie 8 Visualiser avec ggplot2 | Introduction à R et au tidyverse
…
8.3.7 geom_line

geom_line trace des lignes connectant les différentes observations entre elles. Il est notamment utilisé pour la représentation de séries temporelles. On passe à geom_line deux paramètres : x et y. Les observations sont alors connectées selon l’ordre des valeurs passées en x.

Comme il n’y a pas de données adaptées pour ce type de représentation dans notre jeu de données d’exemple, on va utiliser ici le jeu de données economics inclus dans ggplot2 et représenter l’évolution du taux de chômage aux États-Unis (variable unemploy) dans le temps (variable date) :

data("economics")
economics
#> # A tibble: 574 × 6
#>    date         pce    pop psavert uempmed unemploy
#>    <date>     <dbl>  <dbl>   <dbl>   <dbl>    <dbl>
#>  1 1967-07-01  507. 198712    12.6     4.5     2944
#>  2 1967-08-01  510. 198911    12.6     4.7     2945
#>  3 1967-09-01  516. 199113    11.9     4.6     2958
#>  4 1967-10-01  512. 199311    12.9     4.9     3143
#>  5 1967-11-01  517. 199498    12.8     4.7     3066
#>  6 1967-12-01  525. 199657    11.8     4.8     3018
#>  7 1968-01-01  531. 199808    11.7     5.1     2878
#>  8 1968-02-01  534. 199920    12.3     4.5     3001
#>  9 1968-03-01  544. 200056    11.7     4.1     2877
#> 10 1968-04-01  544  200208    12.3     4.6     2709
#> # … with 564 more rows
…
