Introduction à R et au tidyverse - 10 Manipuler les données avec dplyr
…
10.2.2 filter

filter sélectionne des lignes d’une table selon une condition. On lui passe en paramètre un test, et seules les lignes pour lesquelles ce test renvoie TRUE (vrai) sont conservées. Pour plus d’informations sur les tests et leur syntaxe, voir Section 9.2.

Par exemple, si on veut sélectionner les vols du mois de janvier, on peut filtrer sur la variable month de la manière suivante :

filter(flights, month == 1)
#> # A tibble: 27,004 × 19
#>     year month   day dep_time sched_de…¹ dep_d…² arr_t…³ sched…⁴ arr_d…⁵ carrier
#>    <int> <int> <int>    <int>      <int>   <dbl>   <int>   <int>   <dbl> <chr>  
#>  1  2013     1     1      517        515       2     830     819      11 UA     
#>  2  2013     1     1      533        529       4     850     830      20 UA     
#>  3  2013     1     1      542        540       2     923     850      33 AA     
#>  4  2013     1     1      544        545      -1    1004    1022     -18 B6     
#>  5  2013     1     1      554        600      -6     812     837     -25 DL     
#>  6  2013     1     1      554        558      -4     740     728      12 UA     
#>  7  2013     1     1      555        600      -5     913     854      19 B6     
#>  8  2013     1     1      557        600      -3     709     723     -14 EV     
#>  9  2013     1     1      557        600      -3     838     846      -8 B6     
#> 10  2013     1     1      558        600      -2     753     745       8 AA     
#> # … with 26,994 more rows, 9 more variables: flight <int>, tailnum <chr>,
#> #   origin <chr>, dest <chr>, air_time <dbl>, distance <dbl>, hour <dbl>,
#> #   minute <dbl>, time_hour <dttm>, and abbreviated variable names
#> #   ¹​sched_dep_time, ²​dep_delay, ³​arr_time, ⁴​sched_arr_time, ⁵​arr_delay

Si on veut uniquement les vols avec un retard au départ (variable dep_delay) compris entre 10 et 15 minutes :

filter(flights, dep_delay >= 10 & dep_delay <= 15)
#> # A tibble: 14,919 × 19
#>     year month   day dep_time sched_de…¹ dep_d…² arr_t…³ sched…⁴ arr_d…⁵ carrier
#>    <int> <int> <int>    <int>      <int>   <dbl>   <int>   <int>   <dbl> <chr>  
#>  1  2013     1     1      611        600      11     945     931      14 UA     
#>  2  2013     1     1      623        610      13     920     915       5 AA     
#>  3  2013     1     1      743        730      13    1107    1100       7 AA     
#>  4  2013     1     1      743        730      13    1059    1056       3 DL     
#>  5  2013     1     1      851        840      11    1215    1206       9 UA     
#>  6  2013     1     1      912        900      12    1241    1220      21 AA     
#>  7  2013     1     1      914        900      14    1058    1043      15 UA     
#>  8  2013     1     1      920        905      15    1039    1025      14 B6     
#>  9  2013     1     1     1011       1001      10    1133    1128       5 EV     
#> 10  2013     1     1     1112       1100      12    1440    1438       2 UA     
#> # … with 14,909 more rows, 9 more variables: flight <int>, tailnum <chr>,
#> #   origin <chr>, dest <chr>, air_time <dbl>, distance <dbl>, hour <dbl>,
#> #   minute <dbl>, time_hour <dttm>, and abbreviated variable names
#> #   ¹​sched_dep_time, ²​dep_delay, ³​arr_time, ⁴​sched_arr_time, ⁵​arr_delay

Si on passe plusieurs arguments à filter, celui-ci rajoute automatiquement une condition et entre les conditions. La commande précédente peut donc être écrite de la manière suivante, avec le même résultat :

filter(flights, dep_delay >= 10, dep_delay <= 15)

On peut également placer des fonctions dans les tests, qui nous permettent par exemple de sélectionner les vols ayant une distance supérieure à la distance médiane :

filter(flights, distance > median(distance))
#> # A tibble: 167,133 × 19
#>     year month   day dep_time sched_de…¹ dep_d…² arr_t…³ sched…⁴ arr_d…⁵ carrier
#>    <int> <int> <int>    <int>      <int>   <dbl>   <int>   <int>   <dbl> <chr>  
#>  1  2013     1     1      517        515       2     830     819      11 UA     
#>  2  2013     1     1      533        529       4     850     830      20 UA     
#>  3  2013     1     1      542        540       2     923     850      33 AA     
#>  4  2013     1     1      544        545      -1    1004    1022     -18 B6     
#>  5  2013     1     1      555        600      -5     913     854      19 B6     
#>  6  2013     1     1      557        600      -3     838     846      -8 B6     
#>  7  2013     1     1      558        600      -2     849     851      -2 B6     
#>  8  2013     1     1      558        600      -2     853     856      -3 B6     
#>  9  2013     1     1      558        600      -2     924     917       7 UA     
#> 10  2013     1     1      558        600      -2     923     937     -14 UA     
#> # … with 167,123 more rows, 9 more variables: flight <int>, tailnum <chr>,
#> #   origin <chr>, dest <chr>, air_time <dbl>, distance <dbl>, hour <dbl>,
#> #   minute <dbl>, time_hour <dttm>, and abbreviated variable names
#> #   ¹​sched_dep_time, ²​dep_delay, ³​arr_time, ⁴​sched_arr_time, ⁵​arr_delay

10.2.3 select et rename

select permet de sélectionner des colonnes d’un tableau de données. Ainsi, si on veut extraire les colonnes lat et lon du tableau airports :

select(airports, lat, lon)
#> # A tibble: 1,458 × 2
#>      lat    lon
#>    <dbl>  <dbl>
#>  1  41.1  -80.6
#>  2  32.5  -85.7
#>  3  42.0  -88.1
#>  4  41.4  -74.4
#>  5  31.1  -81.4
#>  6  36.4  -82.2
#>  7  41.5  -84.5
#>  8  42.9  -76.8
#>  9  39.8  -76.6
#> 10  48.1 -123. 
#> # … with 1,448 more rows

Si on fait précéder le nom d’un -, la colonne est éliminée plutôt que sélectionnée :

select(airports, -lat, -lon)
#> # A tibble: 1,458 × 6
#>    faa   name                             alt    tz dst   tzone              
#>    <chr> <chr>                          <dbl> <dbl> <chr> <chr>              
#>  1 04G   Lansdowne Airport               1044    -5 A     America/New_York   
#>  2 06A   Moton Field Municipal Airport    264    -6 A     America/Chicago    
#>  3 06C   Schaumburg Regional              801    -6 A     America/Chicago    
#>  4 06N   Randall Airport                  523    -5 A     America/New_York   
#>  5 09J   Jekyll Island Airport             11    -5 A     America/New_York   
#>  6 0A9   Elizabethton Municipal Airport  1593    -5 A     America/New_York   
#>  7 0G6   Williams County Airport          730    -5 A     America/New_York   
#>  8 0G7   Finger Lakes Regional Airport    492    -5 A     America/New_York   
#>  9 0P2   Shoestring Aviation Airfield    1000    -5 U     America/New_York   
#> 10 0S9   Jefferson County Intl            108    -8 A     America/Los_Angeles
#> # … with 1,448 more rows

select comprend toute une série de fonctions facilitant la sélection de colonnes multiples. Par exemple, starts_with, ends_width, contains ou matches permettent d’exprimer des conditions sur les noms de variables.

select(flights, starts_with("dep_"))
#> # A tibble: 336,776 × 2
#>    dep_time dep_delay
#>       <int>     <dbl>
#>  1      517         2
#>  2      533         4
#>  3      542         2
#>  4      544        -1
#>  5      554        -6
#>  6      554        -4
#>  7      555        -5
#>  8      557        -3
#>  9      557        -3
#> 10      558        -2
#> # … with 336,766 more rows

La syntaxe colonne1:colonne2 permet de sélectionner toutes les colonnes situées entre colonne1 et colonne2 incluses1.

select(flights, year:day)
#> # A tibble: 336,776 × 3
#>     year month   day
#>    <int> <int> <int>
#>  1  2013     1     1
#>  2  2013     1     1
#>  3  2013     1     1
#>  4  2013     1     1
#>  5  2013     1     1
#>  6  2013     1     1
#>  7  2013     1     1
#>  8  2013     1     1
#>  9  2013     1     1
#> 10  2013     1     1
#> # … with 336,766 more rows

select propose de nombreuses autres possibilités de sélection qui sont décrites dans la documentation de l’extension tidyselect.

Une variante de select est rename2, qui permet de renommer des colonnes. On l’utilise en lui passant des paramètres de la forme nouveau_nom = ancien_nom. Ainsi, si on veut renommer les colonnes lon et lat de airports en longitude et latitude :

rename(airports, longitude = lon, latitude = lat)
#> # A tibble: 1,458 × 8
#>    faa   name                           latitude longi…¹   alt    tz dst   tzone
#>    <chr> <chr>                             <dbl>   <dbl> <dbl> <dbl> <chr> <chr>
#>  1 04G   Lansdowne Airport                  41.1   -80.6  1044    -5 A     Amer…
#>  2 06A   Moton Field Municipal Airport      32.5   -85.7   264    -6 A     Amer…
#>  3 06C   Schaumburg Regional                42.0   -88.1   801    -6 A     Amer…
#>  4 06N   Randall Airport                    41.4   -74.4   523    -5 A     Amer…
#>  5 09J   Jekyll Island Airport              31.1   -81.4    11    -5 A     Amer…
#>  6 0A9   Elizabethton Municipal Airport     36.4   -82.2  1593    -5 A     Amer…
#>  7 0G6   Williams County Airport            41.5   -84.5   730    -5 A     Amer…
#>  8 0G7   Finger Lakes Regional Airport      42.9   -76.8   492    -5 A     Amer…
#>  9 0P2   Shoestring Aviation Airfield       39.8   -76.6  1000    -5 U     Amer…
#> 10 0S9   Jefferson County Intl              48.1  -123.    108    -8 A     Amer…
#> # … with 1,448 more rows, and abbreviated variable name ¹​longitude

Si les noms de colonnes comportent des espaces ou des caractères spéciaux, on peut les entourer de guillemets (") ou de quotes inverses (`) :

tmp <- rename(
    flights,
    "retard départ" = dep_delay,
    "retard arrivée" = arr_delay
)
select(tmp, `retard départ`, `retard arrivée`)
#> # A tibble: 336,776 × 2
#>    `retard départ` `retard arrivée`
#>              <dbl>            <dbl>
#>  1               2               11
#>  2               4               20
#>  3               2               33
#>  4              -1              -18
#>  5              -6              -25
#>  6              -4               12
#>  7              -5               19
#>  8              -3              -14
#>  9              -3               -8
#> 10              -2                8
#> # … with 336,766 more rows

10.2.4 arrange

arrange réordonne les lignes d’un tableau selon une ou plusieurs colonnes.

Ainsi, si on veut trier le tableau flights selon le retard au départ croissant :

arrange(flights, dep_delay)
#> # A tibble: 336,776 × 19
#>     year month   day dep_time sched_de…¹ dep_d…² arr_t…³ sched…⁴ arr_d…⁵ carrier
#>    <int> <int> <int>    <int>      <int>   <dbl>   <int>   <int>   <dbl> <chr>  
#>  1  2013    12     7     2040       2123     -43      40    2352      48 B6     
#>  2  2013     2     3     2022       2055     -33    2240    2338     -58 DL     
#>  3  2013    11    10     1408       1440     -32    1549    1559     -10 EV     
#>  4  2013     1    11     1900       1930     -30    2233    2243     -10 DL     
#>  5  2013     1    29     1703       1730     -27    1947    1957     -10 F9     
#>  6  2013     8     9      729        755     -26    1002     955       7 MQ     
#>  7  2013    10    23     1907       1932     -25    2143    2143       0 EV     
#>  8  2013     3    30     2030       2055     -25    2213    2250     -37 MQ     
#>  9  2013     3     2     1431       1455     -24    1601    1631     -30 9E     
#> 10  2013     5     5      934        958     -24    1225    1309     -44 B6     
#> # … with 336,766 more rows, 9 more variables: flight <int>, tailnum <chr>,
#> #   origin <chr>, dest <chr>, air_time <dbl>, distance <dbl>, hour <dbl>,
#> #   minute <dbl>, time_hour <dttm>, and abbreviated variable names
#> #   ¹​sched_dep_time, ²​dep_delay, ³​arr_time, ⁴​sched_arr_time, ⁵​arr_delay

On peut trier selon plusieurs colonnes. Par exemple selon le mois, puis selon le retard au départ :

arrange(flights, month, dep_delay)
#> # A tibble: 336,776 × 19
#>     year month   day dep_time sched_de…¹ dep_d…² arr_t…³ sched…⁴ arr_d…⁵ carrier
#>    <int> <int> <int>    <int>      <int>   <dbl>   <int>   <int>   <dbl> <chr>  
#>  1  2013     1    11     1900       1930     -30    2233    2243     -10 DL     
#>  2  2013     1    29     1703       1730     -27    1947    1957     -10 F9     
#>  3  2013     1    12     1354       1416     -22    1606    1650     -44 FL     
#>  4  2013     1    21     2137       2159     -22    2232    2316     -44 DL     
#>  5  2013     1    20      704        725     -21    1025    1035     -10 AS     
#>  6  2013     1    12     2050       2110     -20    2310    2355     -45 B6     
#>  7  2013     1    12     2134       2154     -20       4      50     -46 B6     
#>  8  2013     1    14     2050       2110     -20    2329    2355     -26 B6     
#>  9  2013     1     4     2140       2159     -19    2241    2316     -35 DL     
#> 10  2013     1    11     1947       2005     -18    2209    2230     -21 9E     
#> # … with 336,766 more rows, 9 more variables: flight <int>, tailnum <chr>,
#> #   origin <chr>, dest <chr>, air_time <dbl>, distance <dbl>, hour <dbl>,
#> #   minute <dbl>, time_hour <dttm>, and abbreviated variable names
#> #   ¹​sched_dep_time, ²​dep_delay, ³​arr_time, ⁴​sched_arr_time, ⁵​arr_delay

Si on veut trier selon une colonne par ordre décroissant, on lui applique la fonction desc() :

arrange(flights, desc(dep_delay))
#> # A tibble: 336,776 × 19
#>     year month   day dep_time sched_de…¹ dep_d…² arr_t…³ sched…⁴ arr_d…⁵ carrier
#>    <int> <int> <int>    <int>      <int>   <dbl>   <int>   <int>   <dbl> <chr>  
#>  1  2013     1     9      641        900    1301    1242    1530    1272 HA     
#>  2  2013     6    15     1432       1935    1137    1607    2120    1127 MQ     
#>  3  2013     1    10     1121       1635    1126    1239    1810    1109 MQ     
#>  4  2013     9    20     1139       1845    1014    1457    2210    1007 AA     
#>  5  2013     7    22      845       1600    1005    1044    1815     989 MQ     
#>  6  2013     4    10     1100       1900     960    1342    2211     931 DL     
#>  7  2013     3    17     2321        810     911     135    1020     915 DL     
#>  8  2013     6    27      959       1900     899    1236    2226     850 DL     
#>  9  2013     7    22     2257        759     898     121    1026     895 DL     
#> 10  2013    12     5      756       1700     896    1058    2020     878 AA     
#> # … with 336,766 more rows, 9 more variables: flight <int>, tailnum <chr>,
#> #   origin <chr>, dest <chr>, air_time <dbl>, distance <dbl>, hour <dbl>,
#> #   minute <dbl>, time_hour <dttm>, and abbreviated variable names
#> #   ¹​sched_dep_time, ²​dep_delay, ³​arr_time, ⁴​sched_arr_time, ⁵​arr_delay
…
10.2.5 mutate

mutate permet de créer de nouvelles colonnes dans le tableau de données, en général à partir de variables existantes.

Par exemple, la table flights contient la durée du vol en minutes.. Si on veut créer une nouvelle variable duree_h avec cette durée en heures, on peut faire :

flights <- mutate(flights, duree_h = air_time / 60)

select(flights, air_time, duree_h)
#> # A tibble: 336,776 × 2
#>    air_time duree_h
#>       <dbl>   <dbl>
#>  1      227   3.78 
#>  2      227   3.78 
#>  3      160   2.67 
#>  4      183   3.05 
#>  5      116   1.93 
#>  6      150   2.5  
#>  7      158   2.63 
#>  8       53   0.883
#>  9      140   2.33 
#> 10      138   2.3  
#> # … with 336,766 more rows

On peut créer plusieurs nouvelles colonnes en une seule commande, et les expressions successives peuvent prendre en compte les résultats des calculs précédents. L’exemple suivant convertit d’abord la durée en heures dans une variable duree_h et la distance en kilomètres dans une variable distance_km, puis utilise ces nouvelles colonnes pour calculer la vitesse en km/h.

flights <- mutate(
    flights,
    duree_h = air_time / 60,
    distance_km = distance / 0.62137,
    vitesse = distance_km / duree_h
)

select(flights, air_time, duree_h, distance, distance_km, vitesse)
#> # A tibble: 336,776 × 5
#>    air_time duree_h distance distance_km vitesse
#>       <dbl>   <dbl>    <dbl>       <dbl>   <dbl>
#>  1      227   3.78      1400       2253.    596.
#>  2      227   3.78      1416       2279.    602.
#>  3      160   2.67      1089       1753.    657.
#>  4      183   3.05      1576       2536.    832.
#>  5      116   1.93       762       1226.    634.
#>  6      150   2.5        719       1157.    463.
#>  7      158   2.63      1065       1714.    651.
#>  8       53   0.883      229        369.    417.
#>  9      140   2.33       944       1519.    651.
#> 10      138   2.3        733       1180.    513.
#> # … with 336,766 more rows
…
Ce n’est pas possible d’omettre les parenthèses avec |>, on doit obligatoirement faire :

df |> View()

Dans la suite de ce document on privilégiera (pour l’instant) le pipe du tidyverse %>%, pour des raisons de compatibilité avec des versions de R moins récentes.

10.4 Opérations groupées

10.4.1 group_by

Un élément très important de dplyr est la fonction group_by. Elle permet de définir des groupes de lignes à partir des valeurs d’une ou plusieurs colonnes. Par exemple, on peut grouper les vols selon leur mois :

flights %>% group_by(month)
#> # A tibble: 336,776 × 22
#> # Groups:   month [12]
#>     year month   day dep_time sched_de…¹ dep_d…² arr_t…³ sched…⁴ arr_d…⁵ carrier
#>    <int> <int> <int>    <int>      <int>   <dbl>   <int>   <int>   <dbl> <chr>  
#>  1  2013     1     1      517        515       2     830     819      11 UA     
#>  2  2013     1     1      533        529       4     850     830      20 UA     
#>  3  2013     1     1      542        540       2     923     850      33 AA     
#>  4  2013     1     1      544        545      -1    1004    1022     -18 B6     
#>  5  2013     1     1      554        600      -6     812     837     -25 DL     
#>  6  2013     1     1      554        558      -4     740     728      12 UA     
#>  7  2013     1     1      555        600      -5     913     854      19 B6     
#>  8  2013     1     1      557        600      -3     709     723     -14 EV     
#>  9  2013     1     1      557        600      -3     838     846      -8 B6     
#> 10  2013     1     1      558        600      -2     753     745       8 AA     
#> # … with 336,766 more rows, 12 more variables: flight <int>, tailnum <chr>,
#> #   origin <chr>, dest <chr>, air_time <dbl>, distance <dbl>, hour <dbl>,
#> #   minute <dbl>, time_hour <dttm>, duree_h <dbl>, distance_km <dbl>,
#> #   vitesse <dbl>, and abbreviated variable names ¹​sched_dep_time, ²​dep_delay,
#> #   ³​arr_time, ⁴​sched_arr_time, ⁵​arr_delay
…
Idem pour mutate : les opérations appliquées lors du calcul des valeurs des nouvelles colonnes sont appliquées groupe de lignes par groupe de lignes. Dans l’exemple suivant, on ajoute une nouvelle colonne qui contient le retard moyen pour chaque compagnie aérienne. Cette valeur est donc différente d’une compagnie à une autre, mais identique pour tous les vols d’une même compagnie :

flights %>%
  group_by(carrier) %>%
  mutate(mean_delay_carrier = mean(dep_delay, na.rm = TRUE)) %>%
  select(dep_delay, mean_delay_carrier)
#> Adding missing grouping variables: `carrier`
#> # A tibble: 336,776 × 3
#> # Groups:   carrier [16]
#>    carrier dep_delay mean_delay_carrier
#>    <chr>       <dbl>              <dbl>
#>  1 UA              2              12.1 
#>  2 UA              4              12.1 
#>  3 AA              2               8.59
#>  4 B6             -1              13.0 
#>  5 DL             -6               9.26
#>  6 UA             -4              12.1 
#>  7 B6             -5              13.0 
#>  8 EV             -3              20.0 
#>  9 B6             -3              13.0 
#> 10 AA             -2               8.59
#> # … with 336,766 more rows
…
