Partie 15 dplyr avancé | Introduction à R et au tidyverse
…
On peut utiliser notre fonction de la manière suivante :

prop_suffixe(rp2012$commune, "ac")
#> [1] 2.359768

On a donc dans notre jeu de données 2.36% de communes dont le nom se termine par “ac”29.

Si maintenant on souhaite calculer ce pourcentage pour toutes les régions françaises, il suffit d’appeler notre fonction dans un summarise :

rp2012 %>%
    group_by(region) %>%
    summarise(prop_ac = prop_suffixe(commune, "ac")) %>%
    arrange(desc(prop_ac))
#> # A tibble: 26 × 2
#>    region               prop_ac
#>    <chr>                  <dbl>
#>  1 Limousin               19.6 
#>  2 Aquitaine              12.2 
#>  3 Auvergne                8.62
#>  4 Poitou-Charentes        5.88
#>  5 Bretagne                4.68
#>  6 Midi-Pyrénées           3.91
#>  7 Languedoc-Roussillon    3.89
#>  8 Pays de la Loire        2.18
#>  9 Franche-Comté           1.16
#> 10 Rhône-Alpes             1.03
#> # … with 16 more rows

L’avantage d’avoir créé une fonction pour effectuer cette opération et qu’on peut du coup très facilement faire le même calcul en faisant varier le suffixe recherché.

rp2012 %>%
    group_by(region) %>%
    summarise(prop_ac = prop_suffixe(commune, "ieu")) %>%
    arrange(desc(prop_ac))
#> # A tibble: 26 × 2
#>    region           prop_ac
#>    <chr>              <dbl>
#>  1 Rhône-Alpes        3.42 
#>  2 Midi-Pyrénées      1.30 
#>  3 Bourgogne          0.917
#>  4 Pays de la Loire   0.485
#>  5 Aquitaine          0.358
#>  6 Alsace             0    
#>  7 Auvergne           0    
#>  8 Basse-Normandie    0    
#>  9 Bretagne           0    
#> 10 Centre             0    
#> # … with 16 more rows
…
nom_commune_max <- function(valeurs, communes) {
    communes[valeurs == max(valeurs)]
}

rp2012 %>%
    group_by(region) %>%
    summarise(
        across(
            c(dipl_aucun, dipl_sup),
            nom_commune_max,
            commune
        )
    )
#> # A tibble: 26 × 3
#>    region            dipl_aucun                  dipl_sup            
#>    <chr>             <chr>                       <chr>               
#>  1 Alsace            Bischwiller                 Strasbourg          
#>  2 Aquitaine         Les Églisottes-et-Chalaures Bordeaux            
#>  3 Auvergne          Aigueperse                  Chamalières         
#>  4 Basse-Normandie   Périers                     Saint-Contest       
#>  5 Bourgogne         Saint-Florentin             Fontaine-lès-Dijon  
#>  6 Bretagne          La Guerche-de-Bretagne      Saint-Grégoire      
#>  7 Centre            Gièvres                     Olivet              
#>  8 Champagne-Ardenne Pargny-sur-Saulx            Taissy              
#>  9 Corse             Ghisonaccia                 Ville-di-Pietrabugno
#> 10 Franche-Comté     Saint-Loup-sur-Semouse      Pirey               
#> # … with 16 more rows
…
