Introduction à R et au tidyverse - 18 Itérer avec purrr
…
Si on souhaite réunir ces trois tibbles en un seul, on peut utiliser la fonction bind_rows() de dplyr.

departements <- c("38", "42", "69")
urls <- genere_url(departements)

df <- urls %>%
    map(read_csv) %>%
    bind_rows()

Mais on peut aussi utiliser une autre variante de map(), nommée map_dfr(), qui considère les résultats obtenus par l’application de la fonction comme les lignes d’un tableau de données qu’elle va automatiquement rassembler en un seul tableau, de la même manière qu’avec un bind_rows().

df <- urls %>% map_dfr(read_csv)

df
#> # A tibble: 334 × 37
#>    code_…¹ commune code_…² region depar…³ log_rp log_p…⁴ log_loc log_hlm log_sec
#>      <dbl> <chr>     <dbl> <chr>  <chr>    <dbl>   <dbl>   <dbl>   <dbl>   <dbl>
#>  1   38001 Les Ab…      84 Auver… Isère    2630.   1773.    812.   238.     82.4
#>  2   38006 Alleva…      84 Auver… Isère    1845.   1157.    644.   162.    912. 
#>  3   38012 Aoste        84 Auver… Isère    1158.    762.    378.   149.     31.9
#>  4   38013 Apprieu      84 Auver… Isère    1316.   1086.    211.    45.6    39.8
#>  5   38022 Les Av…      84 Auver… Isère    3388.   2452.    885.   376.    185. 
#>  6   38034 Beaure…      84 Auver… Isère    2116.   1189.    885.   217.     39.4
#>  7   38039 Bernin       84 Auver… Isère    1244.   1028.    199.    75.2    18.1
#>  8   38045 Biviers      84 Auver… Isère    1015.    870.    126.    18.4    17.1
#>  9   38052 Le Bou…      84 Auver… Isère    1438.    890.    494.   132.    436. 
#> 10   38053 Bourgo…      84 Auver… Isère   13150.   5273.   7569.  3445.    184. 
#> # … with 324 more rows, 27 more variables: log_maison <dbl>, log_appart <dbl>,
#> #   age_0_14 <dbl>, age_15_29 <dbl>, age_75p <dbl>, femmes <dbl>, chom <dbl>,
#> #   agric <dbl>, indep <dbl>, cadres <dbl>, interm <dbl>, empl <dbl>,
#> #   ouvr <dbl>, etud <dbl>, dipl_aucun <dbl>, dipl_bepc <dbl>,
#> #   dipl_capbep <dbl>, dipl_bac <dbl>, dipl_sup2 <dbl>, dipl_sup34 <dbl>,
#> #   dipl_sup <dbl>, resid_sec <dbl>, proprio <dbl>, locataire <dbl>, hlm <dbl>,
#> #   maison <dbl>, appart <dbl>, and abbreviated variable names ¹​code_insee, …
…
