Partie 19 Programmer avec le tidyverse | Introduction à R et au tidyverse
…
diff_mean <- function(by, var) {
    starwars %>%
        group_by(across({{ by }})) %>%
        mutate("{{var}}_diff_mean" := {{ var }} - mean({{ var }}, na.rm = TRUE))
}

Exercice 1.3

La fonction unnest() de tidyr permet de transformer une colonne contenant des valeurs de type liste en colonne “normale” en dupliquant les lignes autant de fois qu’il y a d’éléments dans chaque liste :

starwars %>% 
    unnest(films) %>%
    select(name, films)
#> # A tibble: 173 × 2
#>    name           films                  
#>    <chr>          <chr>                  
#>  1 Luke Skywalker The Empire Strikes Back
#>  2 Luke Skywalker Revenge of the Sith    
#>  3 Luke Skywalker Return of the Jedi     
#>  4 Luke Skywalker A New Hope             
#>  5 Luke Skywalker The Force Awakens      
#>  6 C-3PO          The Empire Strikes Back
#>  7 C-3PO          Attack of the Clones   
#>  8 C-3PO          The Phantom Menace     
#>  9 C-3PO          Revenge of the Sith    
#> 10 C-3PO          Return of the Jedi     
#> # … with 163 more rows
…
