Introduction à R et au tidyverse - 20 Débuggage et performance
…
indicateurs <- function(df, var) {
    valeurs <- df[, var]
    print(valeurs)
    if (!is.numeric(valeurs)) return(NA)
    list(
        moyenne = mean(valeurs, na.rm = TRUE),
        sd = sd(valeurs, na.rm = TRUE)
    )
}

On lance cette fonction modifiée sur starwars :

indicateurs(starwars, "height")
#> # A tibble: 87 × 1
#>    height
#>     <int>
#>  1    172
#>  2    167
#>  3     96
#>  4    202
#>  5    150
#>  6    178
#>  7    165
#>  8     97
#>  9    183
#> 10    182
#> # … with 77 more rows
…
