Partie 20 Organiser un projet avec targets | Introduction à R et au tidyverse
…
Lorsqu’on utilise tar_make(), targets lance une nouvelle session R (pour éviter tout problème ou conflit lié à l’état de notre session actuelle), charge les extensions définie via tar_option_set(), et exécute les cibles définies avec tar_plan().

On visualise le nouvel état de notre pipeline, et on voit que toutes les cibles sont passées à l’état up to date.

tar_visnetwork()

À chaque étape, targets crée et stocke dans un cache chacun des objets correspondants aux différentes cibles (donnees_brutes, donnees, etc.). On peut charger à tout moment ces objets dans notre session avec la fonction tar_load()40.

tar_load(donnees_evo)
donnees_evo
#> # A tibble: 128 × 6
#>     sexe preusuel  `2019` `2020`   evo `evo%`
#>    <dbl> <chr>      <dbl>  <dbl> <dbl>  <dbl>
#>  1     1 AARON       2443   2312  -131  -5.36
#>  2     1 ADAM        3670   3386  -284  -7.74
#>  3     1 ALEXANDRE   1154   1039  -115  -9.97
#>  4     1 AMIR        1588   1360  -228 -14.4 
#>  5     1 ANTOINE     1786   1455  -331 -18.5 
#>  6     1 ARTHUR      4008   3800  -208  -5.19
#>  7     1 AUGUSTIN    1546   1379  -167 -10.8 
#>  8     1 AXEL        1809   1683  -126  -6.97
#>  9     1 AYDEN       1524   1786   262  17.2 
#> 10     1 BAPTISTE    1403   1202  -201 -14.3 
#> # … with 118 more rows
…
