Partie 16 dplyr avancé | Introduction à R et au tidyverse
…
16.1.1 Exemple avec un mutate

Dans le jeu de données hdv2003 plusieurs variables comprennent les mêmes modalités Oui / Non. C’est le cas notamment de cuisine et cinema.

Supposons qu’on souhaite recoder les valeurs de cuisine en transformant Oui en O, Non en N. On a vu section 9.3.2 qu’on peut utiliser pour cela la fonction fct_recode() de forcats.

hdv2003 %>%
    mutate(
        cuisine = fct_recode(cuisine,
            "O" = "Oui",
            "N" = "Non"
        )
    )
#> # A tibble: 2,000 × 20
#>       id   age sexe  nivetud     poids occup   qualif freres.soeurs clso  relig 
#>    <int> <int> <fct> <fct>       <dbl> <fct>   <fct>          <int> <fct> <fct> 
#>  1     1    28 Femme Enseignem…  2634. Exerce… Emplo…             8 Oui   Ni cr…
#>  2     2    23 Femme <NA>        9738. Etudia… <NA>               2 Oui   Ni cr…
#>  3     3    59 Homme Derniere …  3994. Exerce… Techn…             2 Non   Ni cr…
#>  4     4    34 Homme Enseignem…  5732. Exerce… Techn…             1 Non   Appar…
#>  5     5    71 Femme Derniere …  4329. Retrai… Emplo…             0 Oui   Prati…
#>  6     6    35 Femme Enseignem…  8675. Exerce… Emplo…             5 Non   Ni cr…
#>  7     7    60 Femme Derniere …  6166. Au foy… Ouvri…             1 Oui   Appar…
#>  8     8    47 Homme Enseignem… 12892. Exerce… Ouvri…             5 Non   Ni cr…
#>  9     9    20 Femme <NA>        7809. Etudia… <NA>               4 Oui   Appar…
#> 10    10    28 Homme Enseignem…  2277. Exerce… Autre              2 Non   Prati…
#> # … with 1,990 more rows, and 10 more variables: trav.imp <fct>,
#> #   trav.satisf <fct>, hard.rock <fct>, lecture.bd <fct>, peche.chasse <fct>,
#> #   cuisine <fct>, bricol <fct>, cinema <fct>, sport <fct>, heures.tv <dbl>

Supposons qu’on souhaite également convertir les NA éventuelles de cuisine en vaeurs explicites Non réponse. On peut le faire avec la fonction fctexplicit_na()deforcats`. Notre recodage doit donc se faire en deux étapes, par exemple de la manière suivante :

hdv2003 %>%
    mutate(
        cuisine = fct_recode(cuisine,
            "O" = "Oui",
            "N" = "Non"
        ),
        cuisine = fct_explicit_na(cuisine, "Non réponse")
    )
#> # A tibble: 2,000 × 20
#>       id   age sexe  nivetud     poids occup   qualif freres.soeurs clso  relig 
#>    <int> <int> <fct> <fct>       <dbl> <fct>   <fct>          <int> <fct> <fct> 
#>  1     1    28 Femme Enseignem…  2634. Exerce… Emplo…             8 Oui   Ni cr…
#>  2     2    23 Femme <NA>        9738. Etudia… <NA>               2 Oui   Ni cr…
#>  3     3    59 Homme Derniere …  3994. Exerce… Techn…             2 Non   Ni cr…
#>  4     4    34 Homme Enseignem…  5732. Exerce… Techn…             1 Non   Appar…
#>  5     5    71 Femme Derniere …  4329. Retrai… Emplo…             0 Oui   Prati…
#>  6     6    35 Femme Enseignem…  8675. Exerce… Emplo…             5 Non   Ni cr…
#>  7     7    60 Femme Derniere …  6166. Au foy… Ouvri…             1 Oui   Appar…
#>  8     8    47 Homme Enseignem… 12892. Exerce… Ouvri…             5 Non   Ni cr…
#>  9     9    20 Femme <NA>        7809. Etudia… <NA>               4 Oui   Appar…
#> 10    10    28 Homme Enseignem…  2277. Exerce… Autre              2 Non   Prati…
#> # … with 1,990 more rows, and 10 more variables: trav.imp <fct>,
#> #   trav.satisf <fct>, hard.rock <fct>, lecture.bd <fct>, peche.chasse <fct>,
#> #   cuisine <fct>, bricol <fct>, cinema <fct>, sport <fct>, heures.tv <dbl>
…
recode_oui_non <- function(v) {
    v %>%
        fct_recode(
            "O" = "Oui",
            "N" = "Non"
        ) %>%
        fct_explicit_na("Manquant")
}

On peut dès lors simplifier notre mutate en appelant notre nouvelle fonction.

hdv2003 %>%
    mutate(cuisine = recode_oui_non(cuisine))
#> # A tibble: 2,000 × 20
#>       id   age sexe  nivetud     poids occup   qualif freres.soeurs clso  relig 
#>    <int> <int> <fct> <fct>       <dbl> <fct>   <fct>          <int> <fct> <fct> 
#>  1     1    28 Femme Enseignem…  2634. Exerce… Emplo…             8 Oui   Ni cr…
#>  2     2    23 Femme <NA>        9738. Etudia… <NA>               2 Oui   Ni cr…
#>  3     3    59 Homme Derniere …  3994. Exerce… Techn…             2 Non   Ni cr…
#>  4     4    34 Homme Enseignem…  5732. Exerce… Techn…             1 Non   Appar…
#>  5     5    71 Femme Derniere …  4329. Retrai… Emplo…             0 Oui   Prati…
#>  6     6    35 Femme Enseignem…  8675. Exerce… Emplo…             5 Non   Ni cr…
#>  7     7    60 Femme Derniere …  6166. Au foy… Ouvri…             1 Oui   Appar…
#>  8     8    47 Homme Enseignem… 12892. Exerce… Ouvri…             5 Non   Ni cr…
#>  9     9    20 Femme <NA>        7809. Etudia… <NA>               4 Oui   Appar…
#> 10    10    28 Homme Enseignem…  2277. Exerce… Autre              2 Non   Prati…
#> # … with 1,990 more rows, and 10 more variables: trav.imp <fct>,
#> #   trav.satisf <fct>, hard.rock <fct>, lecture.bd <fct>, peche.chasse <fct>,
#> #   cuisine <fct>, bricol <fct>, cinema <fct>, sport <fct>, heures.tv <dbl>

Premier avantage : on gagne en lisibilité. On a séparé le code d’une opération spécifique dans une fonction avec un nom “parlant”, ce qui permet de savoir facilement à quoi elle sert. Et on a simplifié notre mutate qui est désormais plus lisible parce qu’il fait apparaître la logique des nos opérations (on veut recoder les valeurs “oui” / “non”) sans en inclure les détails.

Le deuxième avantage évidemment, comme pour toute fonction, est qu’on peut la réutiliser pour appliquer ce recodage à plusieurs variables. Ainsi, si on veut recoder de la même manière cuisine et cinema, il suffit de faire :

hdv2003 %>%
    mutate(
        cuisine = recode_oui_non(cuisine),
        cinema = recode_oui_non(cinema)
    )
#> # A tibble: 2,000 × 20
#>       id   age sexe  nivetud     poids occup   qualif freres.soeurs clso  relig 
#>    <int> <int> <fct> <fct>       <dbl> <fct>   <fct>          <int> <fct> <fct> 
#>  1     1    28 Femme Enseignem…  2634. Exerce… Emplo…             8 Oui   Ni cr…
#>  2     2    23 Femme <NA>        9738. Etudia… <NA>               2 Oui   Ni cr…
#>  3     3    59 Homme Derniere …  3994. Exerce… Techn…             2 Non   Ni cr…
#>  4     4    34 Homme Enseignem…  5732. Exerce… Techn…             1 Non   Appar…
#>  5     5    71 Femme Derniere …  4329. Retrai… Emplo…             0 Oui   Prati…
#>  6     6    35 Femme Enseignem…  8675. Exerce… Emplo…             5 Non   Ni cr…
#>  7     7    60 Femme Derniere …  6166. Au foy… Ouvri…             1 Oui   Appar…
#>  8     8    47 Homme Enseignem… 12892. Exerce… Ouvri…             5 Non   Ni cr…
#>  9     9    20 Femme <NA>        7809. Etudia… <NA>               4 Oui   Appar…
#> 10    10    28 Homme Enseignem…  2277. Exerce… Autre              2 Non   Prati…
#> # … with 1,990 more rows, and 10 more variables: trav.imp <fct>,
#> #   trav.satisf <fct>, hard.rock <fct>, lecture.bd <fct>, peche.chasse <fct>,
#> #   cuisine <fct>, bricol <fct>, cinema <fct>, sport <fct>, heures.tv <dbl>
…
On peut utiliser notre fonction de la manière suivante :

prop_suffixe(rp2012$commune, "ac")
#> [1] 2.359768

On a donc dans notre jeu de données 2.36% de communes dont le nom se termine par “ac”34.

Si maintenant on souhaite calculer ce pourcentage pour toutes les régions françaises, il suffit d’appeler notre fonction dans dans un appel à summarise :

rp2012 %>%
    group_by(region) %>%
    summarise(prop_ac = prop_suffixe(commune, "ac")) %>%
    arrange(desc(prop_ac))
#> # A tibble: 26 × 2
#>    region               prop_ac
#>    <chr>                  <dbl>
#>  1 Limousin               19.6 
#>  2 Aquitaine              12.2 
#>  3 Auvergne                8.62
#>  4 Poitou-Charentes        5.88
#>  5 Bretagne                4.68
#>  6 Midi-Pyrénées           3.91
#>  7 Languedoc-Roussillon    3.89
#>  8 Pays de la Loire        2.18
#>  9 Franche-Comté           1.16
#> 10 Rhône-Alpes             1.03
#> # … with 16 more rows

L’avantage d’avoir créé une fonction pour effectuer cette opération et qu’on peut du coup très facilement faire le même calcul en faisant varier le suffixe recherché.

rp2012 %>%
    group_by(region) %>%
    summarise(prop_ac = prop_suffixe(commune, "ieu")) %>%
    arrange(desc(prop_ac))
#> # A tibble: 26 × 2
#>    region           prop_ac
#>    <chr>              <dbl>
#>  1 Rhône-Alpes        3.42 
#>  2 Midi-Pyrénées      1.30 
#>  3 Bourgogne          0.917
#>  4 Pays de la Loire   0.485
#>  5 Aquitaine          0.358
#>  6 Alsace             0    
#>  7 Auvergne           0    
#>  8 Basse-Normandie    0    
#>  9 Bretagne           0    
#> 10 Centre             0    
#> # … with 16 more rows

En créant une fonction plutôt qu’en mettant notre code directement dans le summarise on a un script plus lisible, plus facile à maintenir, et des fonctionnalités facilement réutilisables.

16.1.3 Exemple avec un rename_with

On a vu section 10.2.3 que dplyr propose la fonction rename() pour renommer des colonnes d’un tableau de données. On peut l’utiliser par exemple pour remplacer un . par un _ dans le nom d’une variable d’hdv2003.

hdv2003 %>% rename("lecture_bd" = "lecture.bd")
#> # A tibble: 2,000 × 20
#>       id   age sexe  nivetud     poids occup   qualif freres.soeurs clso  relig 
#>    <int> <int> <fct> <fct>       <dbl> <fct>   <fct>          <int> <fct> <fct> 
#>  1     1    28 Femme Enseignem…  2634. Exerce… Emplo…             8 Oui   Ni cr…
#>  2     2    23 Femme <NA>        9738. Etudia… <NA>               2 Oui   Ni cr…
#>  3     3    59 Homme Derniere …  3994. Exerce… Techn…             2 Non   Ni cr…
#>  4     4    34 Homme Enseignem…  5732. Exerce… Techn…             1 Non   Appar…
#>  5     5    71 Femme Derniere …  4329. Retrai… Emplo…             0 Oui   Prati…
#>  6     6    35 Femme Enseignem…  8675. Exerce… Emplo…             5 Non   Ni cr…
#>  7     7    60 Femme Derniere …  6166. Au foy… Ouvri…             1 Oui   Appar…
#>  8     8    47 Homme Enseignem… 12892. Exerce… Ouvri…             5 Non   Ni cr…
#>  9     9    20 Femme <NA>        7809. Etudia… <NA>               4 Oui   Appar…
#> 10    10    28 Homme Enseignem…  2277. Exerce… Autre              2 Non   Prati…
#> # … with 1,990 more rows, and 10 more variables: trav.imp <fct>,
#> #   trav.satisf <fct>, hard.rock <fct>, lecture_bd <fct>, peche.chasse <fct>,
#> #   cuisine <fct>, bricol <fct>, cinema <fct>, sport <fct>, heures.tv <dbl>

Supposons maintenant qu’on souhaite appliquer la même transformation à l’ensemble des variables de hdv2003. Une solution pour cela est d’utiliser la fonction rename_with(), toujours fournie par dplyr, qui prend en argument non pas une correspondance "nouveau nom" = "ancien nom" mais une fonction qui sera appliquée à l’ensemble des noms de colonnes.

Par exemple, si on souhaite convertir tous les noms de colonnes en majuscules, on peut passer comme argument la fonction str_to_upper() de stringr.

hdv2003 %>% rename_with(str_to_upper)
#> # A tibble: 2,000 × 20
#>       ID   AGE SEXE  NIVETUD     POIDS OCCUP   QUALIF FRERES.SOEURS CLSO  RELIG 
#>    <int> <int> <fct> <fct>       <dbl> <fct>   <fct>          <int> <fct> <fct> 
#>  1     1    28 Femme Enseignem…  2634. Exerce… Emplo…             8 Oui   Ni cr…
#>  2     2    23 Femme <NA>        9738. Etudia… <NA>               2 Oui   Ni cr…
#>  3     3    59 Homme Derniere …  3994. Exerce… Techn…             2 Non   Ni cr…
#>  4     4    34 Homme Enseignem…  5732. Exerce… Techn…             1 Non   Appar…
#>  5     5    71 Femme Derniere …  4329. Retrai… Emplo…             0 Oui   Prati…
#>  6     6    35 Femme Enseignem…  8675. Exerce… Emplo…             5 Non   Ni cr…
#>  7     7    60 Femme Derniere …  6166. Au foy… Ouvri…             1 Oui   Appar…
#>  8     8    47 Homme Enseignem… 12892. Exerce… Ouvri…             5 Non   Ni cr…
#>  9     9    20 Femme <NA>        7809. Etudia… <NA>               4 Oui   Appar…
#> 10    10    28 Homme Enseignem…  2277. Exerce… Autre              2 Non   Prati…
#> # … with 1,990 more rows, and 10 more variables: TRAV.IMP <fct>,
#> #   TRAV.SATISF <fct>, HARD.ROCK <fct>, LECTURE.BD <fct>, PECHE.CHASSE <fct>,
#> #   CUISINE <fct>, BRICOL <fct>, CINEMA <fct>, SPORT <fct>, HEURES.TV <dbl>

Pour remplacer les . par des _, on va d’abord créer une fonction ad hoc qui utilise str_replace_all.

remplace_points <- function(v) {
    str_replace_all(v, fixed("."), "_")
}

On notera qu’on est obligé d’utiliser ici la fonction fixed() pour indiquer que le motif "." est bien le caractère . et pas une expression régulière.

Dès lors, on peut appliquer cette fonction à l’ensemble de nos noms de variables :

hdv2003 %>% rename_with(remplace_points)
#> # A tibble: 2,000 × 20
#>       id   age sexe  nivetud     poids occup   qualif freres_soeurs clso  relig 
#>    <int> <int> <fct> <fct>       <dbl> <fct>   <fct>          <int> <fct> <fct> 
#>  1     1    28 Femme Enseignem…  2634. Exerce… Emplo…             8 Oui   Ni cr…
#>  2     2    23 Femme <NA>        9738. Etudia… <NA>               2 Oui   Ni cr…
#>  3     3    59 Homme Derniere …  3994. Exerce… Techn…             2 Non   Ni cr…
#>  4     4    34 Homme Enseignem…  5732. Exerce… Techn…             1 Non   Appar…
#>  5     5    71 Femme Derniere …  4329. Retrai… Emplo…             0 Oui   Prati…
#>  6     6    35 Femme Enseignem…  8675. Exerce… Emplo…             5 Non   Ni cr…
#>  7     7    60 Femme Derniere …  6166. Au foy… Ouvri…             1 Oui   Appar…
#>  8     8    47 Homme Enseignem… 12892. Exerce… Ouvri…             5 Non   Ni cr…
#>  9     9    20 Femme <NA>        7809. Etudia… <NA>               4 Oui   Appar…
#> 10    10    28 Homme Enseignem…  2277. Exerce… Autre              2 Non   Prati…
#> # … with 1,990 more rows, and 10 more variables: trav_imp <fct>,
#> #   trav_satisf <fct>, hard_rock <fct>, lecture_bd <fct>, peche_chasse <fct>,
#> #   cuisine <fct>, bricol <fct>, cinema <fct>, sport <fct>, heures_tv <dbl>
…
recode_oui_non <- function(v) {
    v %>%
        fct_recode(
            "O" = "Oui",
            "N" = "Non"
        ) %>%
        fct_explicit_na("Manquant")
}

hdv2003 %>%
    mutate(
        cuisine = recode_oui_non(cuisine),
        cinema = recode_oui_non(cinema)
    )
#> # A tibble: 2,000 × 20
#>       id   age sexe  nivetud     poids occup   qualif freres.soeurs clso  relig 
#>    <int> <int> <fct> <fct>       <dbl> <fct>   <fct>          <int> <fct> <fct> 
#>  1     1    28 Femme Enseignem…  2634. Exerce… Emplo…             8 Oui   Ni cr…
#>  2     2    23 Femme <NA>        9738. Etudia… <NA>               2 Oui   Ni cr…
#>  3     3    59 Homme Derniere …  3994. Exerce… Techn…             2 Non   Ni cr…
#>  4     4    34 Homme Enseignem…  5732. Exerce… Techn…             1 Non   Appar…
#>  5     5    71 Femme Derniere …  4329. Retrai… Emplo…             0 Oui   Prati…
#>  6     6    35 Femme Enseignem…  8675. Exerce… Emplo…             5 Non   Ni cr…
#>  7     7    60 Femme Derniere …  6166. Au foy… Ouvri…             1 Oui   Appar…
#>  8     8    47 Homme Enseignem… 12892. Exerce… Ouvri…             5 Non   Ni cr…
#>  9     9    20 Femme <NA>        7809. Etudia… <NA>               4 Oui   Appar…
#> 10    10    28 Homme Enseignem…  2277. Exerce… Autre              2 Non   Prati…
#> # … with 1,990 more rows, and 10 more variables: trav.imp <fct>,
#> #   trav.satisf <fct>, hard.rock <fct>, lecture.bd <fct>, peche.chasse <fct>,
#> #   cuisine <fct>, bricol <fct>, cinema <fct>, sport <fct>, heures.tv <dbl>
…
la définition d’un ensemble de colonnes de notre tableau de données

une ou plusieurs fonctions à appliquer aux colonnes sélectionnées

Il existe de nombreuses manières de définir les colonnes qu’on souhaite transformer : celles-ci sont en fait les mêmes que celles offertes par le verbe select(). Une première possibilité est d’utiliser c() en lui passant les noms des variables (on notera qu’on n’est pas obligés de mettre ces noms entre guillemets).

hdv2003 %>%
    mutate(
        across(
            c(cinema, cuisine, lecture.bd, bricol),
            recode_oui_non
        )
    )
#> # A tibble: 2,000 × 20
#>       id   age sexe  nivetud     poids occup   qualif freres.soeurs clso  relig 
#>    <int> <int> <fct> <fct>       <dbl> <fct>   <fct>          <int> <fct> <fct> 
#>  1     1    28 Femme Enseignem…  2634. Exerce… Emplo…             8 Oui   Ni cr…
#>  2     2    23 Femme <NA>        9738. Etudia… <NA>               2 Oui   Ni cr…
#>  3     3    59 Homme Derniere …  3994. Exerce… Techn…             2 Non   Ni cr…
#>  4     4    34 Homme Enseignem…  5732. Exerce… Techn…             1 Non   Appar…
#>  5     5    71 Femme Derniere …  4329. Retrai… Emplo…             0 Oui   Prati…
#>  6     6    35 Femme Enseignem…  8675. Exerce… Emplo…             5 Non   Ni cr…
#>  7     7    60 Femme Derniere …  6166. Au foy… Ouvri…             1 Oui   Appar…
#>  8     8    47 Homme Enseignem… 12892. Exerce… Ouvri…             5 Non   Ni cr…
#>  9     9    20 Femme <NA>        7809. Etudia… <NA>               4 Oui   Appar…
#> 10    10    28 Homme Enseignem…  2277. Exerce… Autre              2 Non   Prati…
#> # … with 1,990 more rows, and 10 more variables: trav.imp <fct>,
#> #   trav.satisf <fct>, hard.rock <fct>, lecture.bd <fct>, peche.chasse <fct>,
#> #   cuisine <fct>, bricol <fct>, cinema <fct>, sport <fct>, heures.tv <dbl>

Une autre possibilité est d’utiliser :, qui permet de définir une plage de colonnes en lui indiquant la colonne de début et la colonne de fin. Ainsi dans l’exemple suivant notre recodage est appliqué à toutes les colonnes situées entre hard.rock et sport (incluses).

hdv2003 %>%
    mutate(
        across(
            hard.rock:sport,
            recode_oui_non
        )
    )
#> # A tibble: 2,000 × 20
#>       id   age sexe  nivetud     poids occup   qualif freres.soeurs clso  relig 
#>    <int> <int> <fct> <fct>       <dbl> <fct>   <fct>          <int> <fct> <fct> 
#>  1     1    28 Femme Enseignem…  2634. Exerce… Emplo…             8 Oui   Ni cr…
#>  2     2    23 Femme <NA>        9738. Etudia… <NA>               2 Oui   Ni cr…
#>  3     3    59 Homme Derniere …  3994. Exerce… Techn…             2 Non   Ni cr…
#>  4     4    34 Homme Enseignem…  5732. Exerce… Techn…             1 Non   Appar…
#>  5     5    71 Femme Derniere …  4329. Retrai… Emplo…             0 Oui   Prati…
#>  6     6    35 Femme Enseignem…  8675. Exerce… Emplo…             5 Non   Ni cr…
#>  7     7    60 Femme Derniere …  6166. Au foy… Ouvri…             1 Oui   Appar…
#>  8     8    47 Homme Enseignem… 12892. Exerce… Ouvri…             5 Non   Ni cr…
#>  9     9    20 Femme <NA>        7809. Etudia… <NA>               4 Oui   Appar…
#> 10    10    28 Homme Enseignem…  2277. Exerce… Autre              2 Non   Prati…
#> # … with 1,990 more rows, and 10 more variables: trav.imp <fct>,
#> #   trav.satisf <fct>, hard.rock <fct>, lecture.bd <fct>, peche.chasse <fct>,
#> #   cuisine <fct>, bricol <fct>, cinema <fct>, sport <fct>, heures.tv <dbl>
…
