Partie 17 Itérer avec purrr | Introduction à R et au tidyverse
…
#> chr  (3): commune, region, departement
#> dbl (33): code_insee, code_region, log_rp, log_proprio, log_loc, log_hlm, lo...
#> 
#> ℹ Use `spec()` to retrieve the full column specification for this data.
#> ℹ Specify the column types or set `show_col_types = FALSE` to quiet this message.
#> Rows: 119 Columns: 36
#> ── Column specification ────────────────────────────────────────────────────────────────────────────────────────────────────────────────────────────────────────────
#> Delimiter: ","
#> chr  (3): commune, region, departement
#> dbl (33): code_insee, code_region, log_rp, log_proprio, log_loc, log_hlm, lo...
#> 
#> ℹ Use `spec()` to retrieve the full column specification for this data.
#> ℹ Specify the column types or set `show_col_types = FALSE` to quiet this message.
df
#> # A tibble: 304 × 36
#>    code_insee commune  code_region region departement log_rp log_proprio log_loc
#>         <dbl> <chr>          <dbl> <chr>  <chr>        <dbl>       <dbl>   <dbl>
#>  1      38001 Les Abr…          82 Rhône… Isère         1432         814     588
#>  2      38006 Allevard          82 Rhône… Isère         1684        1033     610
#>  3      38012 Aoste             82 Rhône… Isère         1083         733     331
#>  4      38013 Apprieu           82 Rhône… Isère         1197        1007     172
#>  5      38022 Les Ave…          82 Rhône… Isère         2320        1596     679
#>  6      38034 Beaurep…          82 Rhône… Isère         1985        1080     861
#>  7      38039 Bernin            82 Rhône… Isère         1117         922     172
#>  8      38045 Biviers           82 Rhône… Isère          942         801     131
#>  9      38052 Le Bour…          82 Rhône… Isère         1363         843     476
#> 10      38053 Bourgoi…          82 Rhône… Isère        12129        4924    6913
#> # … with 294 more rows, and 28 more variables: log_hlm <dbl>, log_sec <dbl>,
#> #   log_maison <dbl>, log_appart <dbl>, age_0_14 <dbl>, age_15_29 <dbl>,
#> #   age_75p <dbl>, femmes <dbl>, chom <dbl>, agric <dbl>, indep <dbl>,
#> #   cadres <dbl>, interm <dbl>, empl <dbl>, ouvr <dbl>, etud <dbl>,
#> #   dipl_aucun <dbl>, dipl_bepc <dbl>, dipl_capbep <dbl>, dipl_bac <dbl>,
#> #   dipl_bac2 <dbl>, dipl_sup <dbl>, resid_sec <dbl>, proprio <dbl>,
#> #   locataire <dbl>, hlm <dbl>, maison <dbl>, appart <dbl>
…
L’objectif de modify() est de permettre de “modifier” une liste ou un vecteur en lui appliquant une fonction tout en étant sûr qu’on ne va pas modifier son type.

L’intérêt est que modify propose deux variantes, modify_if et modify_at, qui permettent de sélectionner les éléments soit via une fonction soit par leur nom ou leur position, et n’appliquent la fonction de transformation qu’aux éléments sélectionnés.

Cela peut être particulièrement utile quand on l’applique à un tableau de données. Par exemple le code suivant transforme uniquement les colonnes de type factor de hdv2003 en character, et laisse les autres inchangées.

hdv2003 %>% modify_if(is.factor, as.character)
#> # A tibble: 2,000 × 20
#>       id   age sexe  nivetud     poids occup   qualif freres.soeurs clso  relig 
#>    <int> <int> <chr> <chr>       <dbl> <chr>   <chr>          <int> <chr> <chr> 
#>  1     1    28 Femme Enseignem…  2634. Exerce… Emplo…             8 Oui   Ni cr…
#>  2     2    23 Femme <NA>        9738. Etudia… <NA>               2 Oui   Ni cr…
#>  3     3    59 Homme Derniere …  3994. Exerce… Techn…             2 Non   Ni cr…
#>  4     4    34 Homme Enseignem…  5732. Exerce… Techn…             1 Non   Appar…
#>  5     5    71 Femme Derniere …  4329. Retrai… Emplo…             0 Oui   Prati…
#>  6     6    35 Femme Enseignem…  8675. Exerce… Emplo…             5 Non   Ni cr…
#>  7     7    60 Femme Derniere …  6166. Au foy… Ouvri…             1 Oui   Appar…
#>  8     8    47 Homme Enseignem… 12892. Exerce… Ouvri…             5 Non   Ni cr…
#>  9     9    20 Femme <NA>        7809. Etudia… <NA>               4 Oui   Appar…
#> 10    10    28 Homme Enseignem…  2277. Exerce… Autre              2 Non   Prati…
#> # … with 1,990 more rows, and 10 more variables: trav.imp <chr>,
#> #   trav.satisf <chr>, hard.rock <chr>, lecture.bd <chr>, peche.chasse <chr>,
#> #   cuisine <chr>, bricol <chr>, cinema <chr>, sport <chr>, heures.tv <dbl>

On notera qu’on obtient le même résultat avec le code suivant qui utilise across() de dplyr.

hdv2003 %>%
    mutate(
        across(
            where(is.factor),
            as.character
        )
    )
#> # A tibble: 2,000 × 20
#>       id   age sexe  nivetud     poids occup   qualif freres.soeurs clso  relig 
#>    <int> <int> <chr> <chr>       <dbl> <chr>   <chr>          <int> <chr> <chr> 
#>  1     1    28 Femme Enseignem…  2634. Exerce… Emplo…             8 Oui   Ni cr…
#>  2     2    23 Femme <NA>        9738. Etudia… <NA>               2 Oui   Ni cr…
#>  3     3    59 Homme Derniere …  3994. Exerce… Techn…             2 Non   Ni cr…
#>  4     4    34 Homme Enseignem…  5732. Exerce… Techn…             1 Non   Appar…
#>  5     5    71 Femme Derniere …  4329. Retrai… Emplo…             0 Oui   Prati…
#>  6     6    35 Femme Enseignem…  8675. Exerce… Emplo…             5 Non   Ni cr…
#>  7     7    60 Femme Derniere …  6166. Au foy… Ouvri…             1 Oui   Appar…
#>  8     8    47 Homme Enseignem… 12892. Exerce… Ouvri…             5 Non   Ni cr…
#>  9     9    20 Femme <NA>        7809. Etudia… <NA>               4 Oui   Appar…
#> 10    10    28 Homme Enseignem…  2277. Exerce… Autre              2 Non   Prati…
#> # … with 1,990 more rows, and 10 more variables: trav.imp <chr>,
#> #   trav.satisf <chr>, hard.rock <chr>, lecture.bd <chr>, peche.chasse <chr>,
#> #   cuisine <chr>, bricol <chr>, cinema <chr>, sport <chr>, heures.tv <dbl>
…
