Partie 18 Itérer avec purrr | Introduction à R et au tidyverse
…
Si on souhaite réunir ces trois tibbles en un seul, on peut utiliser la fonction bind_rows() de dplyr.

departements <- c("38", "42", "69")

df <- genere_url(departements) %>%
    map(read_csv) %>%
    bind_rows()

Mais on peut aussi utiliser une autre variante de map(), nommée map_dfr(), qui considère les résultats obtenus par l’application de la fonction comme les lignes d’un tableau de données qu’elle va automatiquement rassembler en un seul tableau, de la même manière qu’avec un bind_rows().

df <- genere_url(departements) %>%
    map_dfr(read_csv)

df
#> # A tibble: 304 × 36
#>    code_insee commune  code_region region departement log_rp log_proprio log_loc
#>         <dbl> <chr>          <dbl> <chr>  <chr>        <dbl>       <dbl>   <dbl>
#>  1      38001 Les Abr…          82 Rhône… Isère         1432         814     588
#>  2      38006 Allevard          82 Rhône… Isère         1684        1033     610
#>  3      38012 Aoste             82 Rhône… Isère         1083         733     331
#>  4      38013 Apprieu           82 Rhône… Isère         1197        1007     172
#>  5      38022 Les Ave…          82 Rhône… Isère         2320        1596     679
#>  6      38034 Beaurep…          82 Rhône… Isère         1985        1080     861
#>  7      38039 Bernin            82 Rhône… Isère         1117         922     172
#>  8      38045 Biviers           82 Rhône… Isère          942         801     131
#>  9      38052 Le Bour…          82 Rhône… Isère         1363         843     476
#> 10      38053 Bourgoi…          82 Rhône… Isère        12129        4924    6913
#> # … with 294 more rows, and 28 more variables: log_hlm <dbl>, log_sec <dbl>,
#> #   log_maison <dbl>, log_appart <dbl>, age_0_14 <dbl>, age_15_29 <dbl>,
#> #   age_75p <dbl>, femmes <dbl>, chom <dbl>, agric <dbl>, indep <dbl>,
#> #   cadres <dbl>, interm <dbl>, empl <dbl>, ouvr <dbl>, etud <dbl>,
#> #   dipl_aucun <dbl>, dipl_bepc <dbl>, dipl_capbep <dbl>, dipl_bac <dbl>,
#> #   dipl_bac2 <dbl>, dipl_sup <dbl>, resid_sec <dbl>, proprio <dbl>,
#> #   locataire <dbl>, hlm <dbl>, maison <dbl>, appart <dbl>
…
